Library\Bee\artifacts\movedfrom\UnityEditor.UI.ref.dll_6750382132457868446.movedfrom
Library\Bee\artifacts\movedfrom\UnityEngine.UI.ref.dll_1879130396959814921.movedfrom
Library\Bee\artifacts\movedfrom\UnityEditor.Graphs.dll_14345762537154523982.movedfrom
Library\Bee\artifacts\movedfrom\UnityEditor.CoreModule.dll_5273968758920135964.movedfrom
Library\Bee\artifacts\movedfrom\UnityEditor.DeviceSimulatorModule.dll_17846927294858811237.movedfrom
Library\Bee\artifacts\movedfrom\UnityEditor.dll_9535955424985602489.movedfrom
Library\Bee\artifacts\movedfrom\UnityEditor.GraphViewModule.dll_14446972054265445354.movedfrom
Library\Bee\artifacts\movedfrom\UnityEditor.PackageManagerUIModule.dll_2511277573383841656.movedfrom
Library\Bee\artifacts\movedfrom\UnityEditor.QuickSearchModule.dll_14351717621708596428.movedfrom
Library\Bee\artifacts\movedfrom\UnityEditor.SceneTemplateModule.dll_8046707518019384525.movedfrom
Library\Bee\artifacts\movedfrom\UnityEditor.UIBuilderModule.dll_2091536814269871390.movedfrom
Library\Bee\artifacts\movedfrom\UnityEditor.UIElementsModule.dll_2499532167163336408.movedfrom
Library\Bee\artifacts\movedfrom\UnityEditor.UIElementsSamplesModule.dll_7341875803633909781.movedfrom
Library\Bee\artifacts\movedfrom\UnityEditor.UIServiceModule.dll_6194898141274998072.movedfrom
Library\Bee\artifacts\movedfrom\UnityEditor.UnityConnectModule.dll_3195433789360472530.movedfrom
Library\Bee\artifacts\movedfrom\UnityEngine.AccessibilityModule.dll_11696148887365016682.movedfrom
Library\Bee\artifacts\movedfrom\UnityEngine.AIModule.dll_9415370600330528752.movedfrom
Library\Bee\artifacts\movedfrom\UnityEngine.AndroidJNIModule.dll_11599311208427963822.movedfrom
Library\Bee\artifacts\movedfrom\UnityEngine.AnimationModule.dll_10881665039175618704.movedfrom
Library\Bee\artifacts\movedfrom\UnityEngine.ARModule.dll_4331586189220439737.movedfrom
Library\Bee\artifacts\movedfrom\UnityEngine.AssetBundleModule.dll_798472030433204670.movedfrom
Library\Bee\artifacts\movedfrom\UnityEngine.AudioModule.dll_15965376437488471426.movedfrom
Library\Bee\artifacts\movedfrom\UnityEngine.ClothModule.dll_4933911382715346022.movedfrom
Library\Bee\artifacts\movedfrom\UnityEngine.ClusterInputModule.dll_12390787064577414296.movedfrom
Library\Bee\artifacts\movedfrom\UnityEngine.ClusterRendererModule.dll_18255842753504306409.movedfrom
Library\Bee\artifacts\movedfrom\UnityEngine.CoreModule.dll_7805224101462061127.movedfrom
Library\Bee\artifacts\movedfrom\UnityEngine.CrashReportingModule.dll_12679814750370051647.movedfrom
Library\Bee\artifacts\movedfrom\UnityEngine.DirectorModule.dll_5580573703997577252.movedfrom
Library\Bee\artifacts\movedfrom\UnityEngine.dll_13185074918174058142.movedfrom
Library\Bee\artifacts\movedfrom\UnityEngine.DSPGraphModule.dll_5963768252819188037.movedfrom
Library\Bee\artifacts\movedfrom\UnityEngine.GameCenterModule.dll_14647485210083407519.movedfrom
Library\Bee\artifacts\movedfrom\UnityEngine.GIModule.dll_1938349641783996426.movedfrom
Library\Bee\artifacts\movedfrom\UnityEngine.GridModule.dll_5315045691927250494.movedfrom
Library\Bee\artifacts\movedfrom\UnityEngine.HotReloadModule.dll_1750825727043611666.movedfrom
Library\Bee\artifacts\movedfrom\UnityEngine.ImageConversionModule.dll_7587375645779827933.movedfrom
Library\Bee\artifacts\movedfrom\UnityEngine.IMGUIModule.dll_1580773016451015011.movedfrom
Library\Bee\artifacts\movedfrom\UnityEngine.InputLegacyModule.dll_11266274757537959855.movedfrom
Library\Bee\artifacts\movedfrom\UnityEngine.InputModule.dll_4901659088634278438.movedfrom
Library\Bee\artifacts\movedfrom\UnityEngine.JSONSerializeModule.dll_173558656539049204.movedfrom
Library\Bee\artifacts\movedfrom\UnityEngine.LocalizationModule.dll_16879972449236567953.movedfrom
Library\Bee\artifacts\movedfrom\UnityEngine.ParticleSystemModule.dll_218998124002296269.movedfrom
Library\Bee\artifacts\movedfrom\UnityEngine.PerformanceReportingModule.dll_12829004797180005382.movedfrom
Library\Bee\artifacts\movedfrom\UnityEngine.Physics2DModule.dll_16404749373987522597.movedfrom
Library\Bee\artifacts\movedfrom\UnityEngine.PhysicsModule.dll_8724814130719464595.movedfrom
Library\Bee\artifacts\movedfrom\UnityEngine.ProfilerModule.dll_9203219560927518513.movedfrom
Library\Bee\artifacts\movedfrom\UnityEngine.RuntimeInitializeOnLoadManagerInitializerModule.dll_15384243164873212654.movedfrom
Library\Bee\artifacts\movedfrom\UnityEngine.ScreenCaptureModule.dll_2040210014192298326.movedfrom
Library\Bee\artifacts\movedfrom\UnityEngine.SharedInternalsModule.dll_17103832219938854957.movedfrom
Library\Bee\artifacts\movedfrom\UnityEngine.SpriteMaskModule.dll_13002671409548151833.movedfrom
Library\Bee\artifacts\movedfrom\UnityEngine.SpriteShapeModule.dll_2627264821739950536.movedfrom
Library\Bee\artifacts\movedfrom\UnityEngine.StreamingModule.dll_5447207118033733582.movedfrom
Library\Bee\artifacts\movedfrom\UnityEngine.SubstanceModule.dll_2901288258714748380.movedfrom
Library\Bee\artifacts\movedfrom\UnityEngine.SubsystemsModule.dll_2242840045088584748.movedfrom
Library\Bee\artifacts\movedfrom\UnityEngine.TerrainModule.dll_10618150540037973377.movedfrom
Library\Bee\artifacts\movedfrom\UnityEngine.TerrainPhysicsModule.dll_253523695776382042.movedfrom
Library\Bee\artifacts\movedfrom\UnityEngine.TextCoreModule.dll_16585915347576014900.movedfrom
Library\Bee\artifacts\movedfrom\UnityEngine.TextRenderingModule.dll_5012429683629222219.movedfrom
Library\Bee\artifacts\movedfrom\UnityEngine.TilemapModule.dll_3627551822598817418.movedfrom
Library\Bee\artifacts\movedfrom\UnityEngine.TLSModule.dll_4768503234245955751.movedfrom
Library\Bee\artifacts\movedfrom\UnityEngine.UIElementsModule.dll_2548628969154080803.movedfrom
Library\Bee\artifacts\movedfrom\UnityEngine.UIElementsNativeModule.dll_7877796558319343514.movedfrom
Library\Bee\artifacts\movedfrom\UnityEngine.UIModule.dll_9087626170121489820.movedfrom
Library\Bee\artifacts\movedfrom\UnityEngine.UmbraModule.dll_6369520752916101365.movedfrom
Library\Bee\artifacts\movedfrom\UnityEngine.UNETModule.dll_18372436744479286720.movedfrom
Library\Bee\artifacts\movedfrom\UnityEngine.UnityAnalyticsModule.dll_2497662071954052041.movedfrom
Library\Bee\artifacts\movedfrom\UnityEngine.UnityConnectModule.dll_1853224825294979709.movedfrom
Library\Bee\artifacts\movedfrom\UnityEngine.UnityCurlModule.dll_14564660868163666557.movedfrom
Library\Bee\artifacts\movedfrom\UnityEngine.UnityTestProtocolModule.dll_2424708012995106155.movedfrom
Library\Bee\artifacts\movedfrom\UnityEngine.UnityWebRequestAssetBundleModule.dll_5807776501591565658.movedfrom
Library\Bee\artifacts\movedfrom\UnityEngine.UnityWebRequestAudioModule.dll_3028138323317954206.movedfrom
Library\Bee\artifacts\movedfrom\UnityEngine.UnityWebRequestModule.dll_8857117692631234396.movedfrom
Library\Bee\artifacts\movedfrom\UnityEngine.UnityWebRequestTextureModule.dll_7740669179154910259.movedfrom
Library\Bee\artifacts\movedfrom\UnityEngine.UnityWebRequestWWWModule.dll_3498190804995136367.movedfrom
Library\Bee\artifacts\movedfrom\UnityEngine.VehiclesModule.dll_14210307865898592191.movedfrom
Library\Bee\artifacts\movedfrom\UnityEngine.VFXModule.dll_14054530317741816340.movedfrom
Library\Bee\artifacts\movedfrom\UnityEngine.VideoModule.dll_187442212038404391.movedfrom
Library\Bee\artifacts\movedfrom\UnityEngine.VirtualTexturingModule.dll_10511474828598958117.movedfrom
Library\Bee\artifacts\movedfrom\UnityEngine.VRModule.dll_15055500981726679828.movedfrom
Library\Bee\artifacts\movedfrom\UnityEngine.WindModule.dll_16330216213402431152.movedfrom
Library\Bee\artifacts\movedfrom\UnityEngine.XRModule.dll_265331279738134642.movedfrom
Library\Bee\artifacts\movedfrom\UnityEditor.WindowsStandalone.Extensions.dll_10528246036716108356.movedfrom
Library\Bee\artifacts\movedfrom\Unity.Plastic.Antlr3.Runtime.dll_3159058773424579731.movedfrom
Library\Bee\artifacts\movedfrom\Unity.VisualScripting.IonicZip.dll_2243882229031993894.movedfrom
Library\Bee\artifacts\movedfrom\Unity.VisualScripting.YamlDotNet.dll_3224846507810419766.movedfrom
Library\Bee\artifacts\movedfrom\Unity.VisualScripting.Antlr3.Runtime.dll_16009764173613106261.movedfrom